<svg width="267" height="416" viewBox="0 0 267 416" fill="none" xmlns="http://www.w3.org/2000/svg">
<path fill-rule="evenodd" clip-rule="evenodd" d="M6.01135 349.902C10.6142 350.897 15.3483 350.619 20.0117 351.008C19.861 350.617 19.7347 350.217 19.6358 349.811C14.817 349.227 9.76331 348.95 5.16916 347.357C5.06075 347.875 4.97949 348.399 4.9473 348.928C4.94295 348.999 4.95252 349.791 4.83958 349.644C4.97949 349.826 5.80254 349.863 6.01135 349.902M29.2656 337.953C37.6735 335.188 46.593 332.805 53.0557 326.365C47.0768 324.195 42.773 326.961 37.6337 321.407C37.4379 321.449 37.2481 321.508 37.0635 321.58C31.5441 330.974 19.7851 332.764 11.1733 338.207C7.68234 340.24 1.18017 345.715 9.49864 345.838C12.7824 346.336 16.085 346.704 19.3964 346.959C19.6519 341.669 24.8885 339.352 29.2656 337.953M23.4099 351.501C25.0757 353.774 28.0831 354.672 30.8039 354.449C32.805 354.177 34.5708 353.473 36.6522 353.625C52.43 353.025 67.9453 349.755 83.3311 346.416C97.113 343.829 86.5809 333.649 87.7308 325.413C85.7861 326.6 83.5808 327.466 81.3111 328.103C78.3863 336.248 70.3938 334.122 64.7324 330.22C59.1941 330.66 58.2348 328.791 53.7064 326.627C48.8378 335.355 37.9388 337.301 29.3196 340.617C24.0816 342.029 19.7925 346.079 23.4099 351.501M23.6962 358.78C28.124 360.105 32.8099 359.875 37.3785 359.502C52.3868 358.201 67.2957 355.641 81.856 351.769C85.3092 350.85 92.0085 349.783 92.3264 345.447C89.2526 349.481 83.7651 349.956 79.1551 350.996C64.023 353.964 48.523 357.797 33.0472 357.058C29.7788 357.988 26.2165 357.254 23.4512 355.442C23.5391 356.554 23.6188 357.667 23.6962 358.78M70.9505 329.831C74.2838 331.226 77.3925 330.883 80.1027 328.417C77.0074 329.173 74.0484 329.484 70.9505 329.831M90.4272 317.264C91.9217 313.534 93.4462 302.345 94.1927 298.444C95.6683 291.024 99.0614 284.217 103.037 277.615C111.185 264.088 121.781 251.427 123.375 236.14C123.345 235.244 123.311 234.349 123.294 233.453C123.259 231.589 123.089 229.57 123.441 227.74C123.452 227.679 123.533 227.693 123.551 227.74C124.249 229.572 124.462 231.748 124.732 233.692C124.981 235.491 125.186 237.283 125.2 239.102C125.214 240.829 125.102 242.587 124.705 244.274C124.689 244.341 124.673 244.409 124.656 244.477C124.89 245.149 125.146 245.814 125.427 246.468C126.092 248.016 126.834 249.538 127.579 251.049C129.091 254.119 130.612 257.183 132.143 260.243C133.702 263.361 135.255 266.483 136.848 269.584C137.344 270.55 137.81 271.532 138.264 272.52C142.205 278.498 146.492 284.246 151.123 289.707C155.146 294.059 158.729 299.265 164.182 301.903C169.596 304.657 175.503 306.385 181.054 308.797C202.89 312.622 222.809 312.643 228.301 282.579C227.749 281.921 227.246 281.219 226.749 280.604C224.045 277.262 221.452 273.83 218.854 270.406C213.952 263.945 209.005 257.437 203.026 251.919C190.988 241.699 177.715 232.581 168.868 219.181C168.033 218.078 167.349 216.879 166.892 215.588C160.963 217.953 154.285 218.515 147.952 218.763C139.443 219.098 130.931 219.449 122.419 219.677C120.033 223.091 112.638 223.392 109.124 223.965C108.404 224.043 107.802 223.409 107.588 222.795C106.996 221.095 106.382 219.406 105.75 217.723C98.2471 219.132 90.7087 220.341 83.1884 221.669C82.682 222.091 82.4805 222.67 82.2867 223.397C81.9886 224.514 81.7017 225.635 81.3992 226.751C80.825 228.87 80.1801 230.973 79.5857 233.089C79.2546 234.267 78.9649 235.503 78.5763 236.696C72.0595 264.368 62.8717 295.057 56.2709 321.068C56.0541 322.03 55.8641 323.286 56.0278 324.329C57.19 325.233 58.4141 325.968 59.7281 326.582C69.0029 325.933 85.7648 327.267 90.4272 317.264M155.219 304.129C157.911 304.475 160.65 304.925 163.411 305.427C160.996 304.344 158.727 302.989 156.891 301.033C143.759 287.758 133.103 271.86 126.222 254.48C125.283 252.144 124.333 249.781 123.524 247.382C123.378 247.605 123.214 247.815 123.03 248.012C119.845 258.517 112.604 268.099 106.551 278.013C116.022 295.486 136.858 301.327 155.219 304.129M229.774 284.006C229.715 283.962 229.654 283.92 229.596 283.874C229.591 283.957 229.583 284.037 229.577 284.12C229.643 284.081 229.709 284.044 229.774 284.006M183.072 123.3C182.245 125.782 181.4 128.26 180.091 130.531C177.949 129.14 176.171 127.225 173.944 125.978C171.645 124.689 169.311 125.037 167.075 126.296C166.489 126.625 167.015 127.527 167.602 127.197C168.731 126.561 169.975 126.051 171.297 126.17C172.331 126.263 173.261 126.74 174.111 127.308C176.156 128.676 177.884 130.437 180.004 131.707C180.251 131.855 180.572 131.758 180.718 131.52C182.232 129.05 183.167 126.311 184.079 123.578C184.292 122.938 183.283 122.666 183.072 123.3M162.264 183.125C161.706 183.496 162.23 184.4 162.791 184.027C169.099 179.831 169.471 171.491 173.201 165.498C173.558 164.925 172.654 164.401 172.3 164.971C168.705 170.747 168.321 179.096 162.264 183.125M140.484 139.578C139.151 139.228 136.209 138.878 134.679 137.872C131.002 150.481 125.998 162.665 120.792 174.712C120.433 175.533 120.113 176.62 119.606 177.482C122.159 178.188 124.491 179.006 126.36 179.831C128.688 180.851 130.967 182.049 133.126 183.43C135.021 184.539 136.832 185.774 138.542 187.14C139.065 187.031 139.588 186.922 140.112 186.81C141.883 186.428 143.677 186.019 145.405 185.436C145.847 184.352 145.991 183.078 146.367 182.009C147.02 179.666 147.672 177.32 148.325 174.976C151.824 162.536 155.186 150.056 158.736 137.63C153.131 140.228 146.484 140.59 140.484 139.578M133.563 129.013C133.083 126.985 132.103 124.483 129.626 124.557C127.728 124.615 125.911 125.728 124.192 126.565C124.272 125.952 124.705 125.429 125.092 124.905C125.492 124.364 124.585 123.843 124.19 124.378C123.481 125.338 122.883 126.266 123.236 127.486C123.338 127.84 123.695 127.931 124.002 127.798C125.677 127.073 127.366 125.945 129.191 125.646C131.406 125.283 132.14 127.533 132.557 129.291C132.712 129.945 133.718 129.666 133.563 129.013M101.169 178.287C98.8855 178.771 97.798 180.821 96.6514 182.652C93.7993 187.202 91.064 191.825 88.4381 196.51C87.7264 197.778 87.0234 199.052 86.3293 200.331C86.1413 200.646 85.9758 200.987 85.8053 201.323C90.0356 200.945 94.2134 200.322 98.1965 198.766C97.3614 196.875 98.7796 196.551 100.37 195.452C102.074 194.385 103.875 193.405 105.83 192.888C106.949 192.593 109.523 192.528 109.825 194.014C109.967 193.612 110.264 193.259 110.713 193.089C113.892 192.043 117.27 191.656 120.525 190.88C126.029 189.72 131.541 188.606 137.046 187.454C135.564 186.508 134.051 185.61 132.511 184.767C127.68 182.339 122.545 180.432 117.271 179.276C111.989 178.115 106.565 177.71 101.169 178.287M113.313 141.04C111.81 148.879 110.567 156.775 108.502 164.494C108.328 165.145 109.335 165.42 109.509 164.771C111.574 157.053 112.816 149.157 114.32 141.318C114.446 140.66 113.439 140.381 113.313 141.04M74.6114 178.381C69.9516 182.658 70.2577 189.826 68.255 195.457C67.4074 198.387 66.4418 201.286 65.2549 204.098C65.2288 204.161 65.2029 204.223 65.1768 204.286C70.7762 202.267 76.743 201.989 82.6801 201.568C82.7255 201.368 82.7917 201.183 82.8767 201.032C83.8303 199.198 84.8658 197.4 85.8646 195.589C88.52 190.856 91.3024 186.196 94.1962 181.604C94.3771 181.319 94.5581 181.024 94.7424 180.73C88.626 178.729 79.9919 174.974 74.6114 178.381M52.6253 205.72C52.0703 208.346 52.4272 211.107 52.5766 213.78C55.1154 210.406 58.333 207.526 62.0966 205.608C62.3472 203.921 63.4105 202.45 63.9012 200.811C64.8078 198.498 65.5421 196.135 66.2034 193.75C60.0661 195.029 54.0922 199.487 52.6253 205.72M109.738 194.691C109.735 194.632 109.733 194.575 109.735 194.515C109.731 194.514 109.728 194.512 109.726 194.51C109.566 194.354 109.389 194.234 109.194 194.148C109.378 194.324 109.559 194.505 109.738 194.691M108.823 217.133C109.275 218.288 109.719 219.447 110.156 220.608C112.319 220.237 116.923 219.364 118.808 218.368C118.136 218.391 117.471 218.041 117.301 217.239C117.226 216.884 117.108 216.552 117.015 216.206C115.879 212.501 114.91 208.721 113.305 205.17C111.736 201.42 109.869 197.776 108.442 193.971C106.023 193.818 102.202 196.821 100.474 198.046C103.556 204.263 106.293 210.641 108.813 217.105C108.86 217.105 108.908 217.105 108.955 217.107C108.912 217.116 108.867 217.124 108.823 217.133M51.308 221.186C51.1375 222.11 50.9445 223.027 50.814 223.959C50.4834 227.605 50.0326 231.445 51.4385 234.943C52.3105 237.085 54.0974 235.362 55.2826 234.523C57.2104 233.177 58.9855 231.631 60.755 230.086C66.191 224.972 72.544 220.624 80.1691 219.905C88.4014 218.76 97.3213 217.33 105.524 217.121C103.283 211.171 100.852 205.302 98.5009 199.389C94.1386 201.836 89.2142 202.73 84.1852 203.301C84.067 203.36 83.9416 203.412 83.806 203.454C83.5676 203.503 83.3675 203.48 83.2073 203.407C76.501 204.117 69.6609 204.396 63.7618 207.14C61.479 208.201 59.337 209.631 57.3983 211.601C55.2773 213.634 53.5686 216.087 52.4217 218.795C52.0634 219.63 51.8736 220.498 51.308 221.186M41.8751 299.853C40.819 305.338 36.4338 317.558 43.0237 320.6C45.9663 322.231 49.6717 321.29 52.5872 322.784C52.6618 321.848 52.8376 320.92 53.0481 320.061C61.5442 292.291 69.3985 255.938 79.2936 228.189C79.6049 227.062 79.9209 225.936 80.2581 224.817C80.5399 223.881 80.7621 222.883 81.1757 222.025C78.4231 222.53 75.6856 223.124 73.1845 224.422C67.9049 226.569 60.5115 235.895 54.9918 238.694C54.7727 240.755 54.1672 242.806 53.8573 244.84C49.9405 263.193 45.8529 281.511 41.8751 299.853M2.56068 345.787C2.65447 345.341 2.90087 345.052 3.21147 344.895C3.16414 335.537 22.8347 332.495 28.7956 326.535C31.5226 324.608 33.5063 321.423 36.6734 320.23C36.6164 320.15 36.557 320.072 36.5019 319.991C33.1433 314.454 38.4473 300.998 39.3869 295.219C43.6987 277.155 47.8803 259.048 52.7595 241.127C52.8587 240.784 53.0431 240.106 53.2745 239.356C52.7489 239.483 52.2462 239.524 51.7746 239.463C44.9308 237.946 46.4673 224.102 48.075 219.085C48.2474 218.494 48.6494 218.12 49.121 217.944C49.0601 217.638 49.1156 217.312 49.3331 217.001C49.4497 216.834 49.6291 216.714 49.824 216.653C50.031 211.892 48.8425 206.774 51.3481 202.424C54.1637 197.667 60.8804 193.731 66.285 193.454C67.0593 190.649 67.7379 187.816 68.4864 185.006C69.3075 182.063 70.477 178.902 72.9356 176.928C76.1164 174.099 82.9064 174.962 88.5389 176.961C88.2309 175.488 88.9323 174.155 89.362 172.773C90.7629 168.639 92.2053 164.518 93.6775 160.41C98.962 146.559 103.302 132.201 109.912 118.921C112.65 114.419 117.913 112.39 122.967 111.973C125.337 111.734 127.858 111.642 130.25 111.922C130.327 111.776 130.405 111.632 130.485 111.487C132.446 108.089 136.426 101.762 141.006 102.848C141.49 99.6165 141.497 96.3051 141.098 93.072C141.07 92.8423 141.446 92.7431 141.54 92.9519C144.575 99.7592 144.011 108.136 140.308 114.581C140.037 115.028 139.668 115.26 139.285 115.326C138.695 122.093 137.221 128.772 135.403 135.326C135.676 135.337 135.939 135.394 136.158 135.492C141.959 137.616 148.339 137.963 154.377 136.722C156.077 136.364 157.723 135.882 159.378 135.391C159.691 134.305 160.004 133.223 160.319 132.139C161.109 128.714 161.311 125.424 163.316 122.666C163.434 122.462 163.556 122.26 163.672 122.058C165.282 119.138 166.918 116.234 168.565 113.337C168.966 112.862 171.642 107.588 173.725 104.398C173.464 104.391 173.194 104.325 172.931 104.193C171.463 103.46 171.478 101.336 171.21 99.9105C170.389 95.482 169.439 91.0466 169.178 86.5415C169.164 86.3118 169.515 86.2143 169.618 86.4232C171.621 90.394 173.01 94.6433 174.492 98.8282C174.522 98.9117 174.553 98.997 174.586 99.084C175.961 97.3509 178.374 96.9385 180.476 97.4048C183.989 98.3218 185.761 101.177 186.782 104.424C196.884 109.246 208.904 104.322 215.034 117.078C216.57 120.785 217.235 124.769 217.215 128.928C216.997 129.873 216.832 130.832 216.682 131.782C216.321 134.081 216.082 136.398 215.674 138.69C215.229 141.194 214.519 143.657 213.735 146.074C212.007 151.407 209.714 156.528 207.48 161.663C207.215 162.274 208.114 162.804 208.382 162.19C209.612 159.362 210.859 156.541 212.026 153.686C213.714 149.554 215.307 145.288 216.287 140.91C220.681 164.204 222.048 188.004 221.102 211.68C221.447 228.094 231.515 242.335 234.4 258.309C235.839 264.604 236.742 271.058 236.63 277.526C236.829 280.601 235.628 284.992 232.196 284.873C231.595 285.117 230.995 285.336 230.389 285.545C230.218 285.609 230.055 285.665 229.905 285.711C229.734 285.763 229.578 285.752 229.441 285.701C226.805 311.78 205.89 316.793 181.861 312.135C180.866 312.152 179.888 311.922 178.842 311.628C178.334 311.477 177.83 311.318 177.325 311.151C176.946 311.061 176.565 310.969 176.184 310.873C159.748 307.527 142.522 306.975 126.988 300.121C118.004 296.19 109.549 290.053 104.457 281.554C101.489 286.769 99.0125 292.115 97.7683 297.768C96.8793 301.845 95.3548 313.086 94.21 317.108C93.6756 319.109 92.7536 320.793 91.5494 322.211C91.5526 322.218 91.5555 322.224 91.5588 322.23C90.5264 322.809 89.6089 323.574 88.8744 324.494C89.6567 331.128 96.4185 337.51 92.9608 344.438C94.5921 348.193 90.588 351.248 87.2928 352.023C82.2412 353.638 77.0283 354.853 71.8545 356.006C61.612 357.916 29.5548 364.975 21.8813 359.48C21.9913 358.307 20.5493 354.497 22.2513 354.44C21.4966 353.695 20.871 352.824 20.3972 351.879C15.7009 353.408 10.4817 352.86 5.69995 352.296C1.83279 352.38 1.97462 348.612 2.56068 345.787" fill="black"/>
<path fill-rule="evenodd" clip-rule="evenodd" d="M157.862 12.8419C154.985 12.2609 152.03 11.8994 149.092 12.0082L148.866 12.017C146.655 12.1054 143.855 12.301 141.927 13.5874C141.816 13.476 141.638 13.4188 141.476 13.4961C139.184 14.5907 136.664 15.3822 134.251 16.1687C131.849 16.9512 129.357 17.4679 126.839 17.6761C125.892 17.7545 125.082 18.778 125.681 19.6959C125.824 19.9147 125.963 20.1357 126.101 20.3572C125.87 20.333 125.638 20.3081 125.407 20.2847C124.645 20.208 123.884 21.0215 123.929 21.7637C123.957 22.2306 124.008 22.6918 124.082 23.1476C123.792 23.1415 123.504 23.185 123.225 23.3029C121.814 23.8992 121.912 25.5811 122.018 26.8608C122.164 28.6366 122.828 30.5176 124.06 31.8467C123.14 32.803 122.489 33.9451 122.1 35.3015C121.818 36.2919 121.661 37.3469 121.739 38.378L121.764 38.6866C121.859 39.8055 122.05 41.0443 122.854 41.8492C123.267 42.2642 123.776 42.4154 124.26 42.3675C123.967 44.946 123.779 47.5392 123.602 50.1233L123.519 51.3583C123.125 57.3306 122.828 63.3417 122.906 69.3238C122.978 74.9142 124.081 80.3405 127.508 84.8797C130.628 89.013 135.109 92.06 140.177 93.2183C142.909 93.8436 145.697 93.8878 148.462 93.4894C149.802 93.2958 151.151 92.9988 152.423 92.5303C153.831 92.0102 154.843 91.2448 155.79 90.0975C156.238 89.5534 156.022 88.3951 155.13 88.504C153.781 88.6677 152.549 88.865 151.255 89.2644L151.07 89.3229C149.782 89.736 148.447 90.0441 147.1 90.175C144.341 90.4424 141.539 90.1732 138.896 89.3358C134.593 87.9709 130.886 84.9295 128.51 81.1078C125.69 76.5779 125.372 71.4356 125.412 66.227C125.456 60.5114 125.642 54.7925 125.945 49.0828L125.997 48.1313C126.157 45.1931 126.312 42.2531 126.448 39.3131C126.49 38.3909 126.555 37.4613 126.671 36.5409C127.734 35.9175 128.687 35.058 129.308 33.9974C130.556 34.5139 131.869 34.8865 133.076 35.1834C135.873 35.8718 138.776 36.0389 141.623 35.6078C142.391 35.9252 143.174 36.2043 143.969 36.4444C144.184 36.5398 144.399 36.6335 144.613 36.7254C146.53 37.5461 148.475 38.2415 150.498 38.7505L150.996 38.8746C152.061 39.1373 153.217 39.396 154.351 39.4772C154.537 39.5492 154.738 39.61 154.957 39.6635C155.989 39.9144 157.06 39.9937 158.118 39.9051C159.148 39.8185 159.893 38.7764 159.325 37.8007C158.911 37.0887 158.492 36.3786 158.07 35.6703C159.539 36.2827 161.056 36.7918 162.585 37.2233C164.13 37.6586 165.697 38.0257 167.265 38.3632C168.104 38.5421 168.946 38.7007 169.783 38.8796C170.382 39.0069 171.301 39.0733 171.79 39.468C172.33 39.9015 172.483 40.9122 172.688 41.5356C172.957 42.3453 173.209 43.1587 173.44 43.9813C173.898 45.6229 174.274 47.2884 174.566 48.9705C174.857 50.6545 175.052 52.355 175.161 54.0611C175.27 55.7654 175.222 57.4807 175.397 59.1776C175.491 60.0776 176.457 60.5406 177.17 59.9116C177.254 59.8379 177.338 59.7633 177.421 59.6879L177.546 59.5741C178.156 59.0208 178.748 58.4343 179.236 57.774C179.324 57.6522 179.409 57.525 179.488 57.3958C179.501 57.3958 179.512 57.3922 179.525 57.3829L179.661 57.281C181.151 56.1707 183.642 54.7231 185.095 56.5677C185.558 57.1553 185.795 57.9035 185.992 58.6254L186.338 59.9173C186.561 60.7607 186.771 61.6088 186.894 62.4717C187.172 64.4047 187.032 66.6327 185.703 68.1821C185.173 68.8018 184.441 69.2444 183.625 69.3606C183.169 69.4234 182.719 69.3459 182.268 69.2887C181.809 69.2315 181.367 69.3238 180.908 69.2795C180.178 69.2076 179.859 70.0818 180.132 70.6315C180.279 70.9266 180.453 71.1811 180.65 71.3969C180.491 71.5334 180.34 71.6809 180.194 71.8359C179.763 71.9742 179.376 72.2712 179.087 72.664C178.853 72.9813 178.731 73.3262 178.711 73.6895C178.685 73.7799 178.663 73.8721 178.642 73.9662L178.247 74.6084C178.16 74.7492 178.073 74.8884 177.987 75.0249C176.98 76.6111 175.863 77.9538 174.475 79.2191C173.139 80.4364 171.689 81.5265 170.433 82.8323L170.285 82.9874C169.115 84.2215 167.882 85.7154 168.34 87.5098C168.458 87.9709 169.101 88.3029 169.521 87.9912C170.872 86.9878 171.552 85.3979 172.699 84.1806C173.878 82.9264 175.185 81.7995 176.368 80.5489C177.487 79.3685 178.37 78.0313 179.035 76.5594C179.301 76.8527 179.688 77.0611 180.224 77.1423C181.145 77.2806 182.004 76.7402 182.406 75.9416C182.664 76.0559 182.928 76.1592 183.193 76.2404C184.59 76.6683 185.469 75.1134 184.942 73.9643C184.66 73.3483 184.308 72.8134 183.871 72.3634C185.237 72.1752 186.627 71.4688 187.525 70.5872C189.777 68.372 190.086 65.0428 189.579 62.0825C189.31 60.5129 188.846 58.9249 188.243 57.4512C188.138 57.1948 188.026 56.9366 187.902 56.6821C187.971 56.6802 188.041 56.6507 188.085 56.5935C188.492 56.0365 188.988 55.5809 189.29 54.9575C189.569 54.3857 189.878 53.8066 190.097 53.2108C190.549 51.9917 190.77 50.6157 190.917 49.3265C191.222 46.6871 191.104 44.0643 190.7 41.4415C190.013 36.9743 188.352 32.6993 185.906 28.9481C186.04 28.8781 186.167 28.7936 186.286 28.6936L186.345 28.6423L186.44 28.556C187.138 27.9239 187.078 26.7393 186.44 26.0991L186.239 25.897C185.984 25.6435 185.764 25.4426 185.352 25.1665C185.291 25.1257 185.229 25.0874 185.166 25.0516C185.382 24.6528 185.457 24.1866 185.307 23.6722C184.783 21.8801 182.206 21.9436 180.573 22.725C178.767 21.1114 176.763 19.7105 174.592 18.5762C169.42 15.8759 163.572 13.9928 157.862 12.8419ZM184.596 60.0408C183.63 59.7254 182.347 60.3875 181.479 60.7859C180.379 61.2913 179.442 62.0383 178.536 62.8277C178.084 63.2224 178.003 63.8679 178.115 64.4194C178.127 64.4748 178.138 64.5319 178.151 64.5891C178.27 65.1775 178.927 65.6404 179.507 65.6238C180.722 65.5906 181.3 64.5412 181.988 63.6521C182.069 63.796 182.17 63.9288 182.296 64.0284L182.381 64.0948C182.666 64.3122 182.98 64.486 183.357 64.4692C183.625 64.4563 183.881 64.3881 184.117 64.2645C184.707 63.9528 184.966 63.1892 184.806 62.5676C184.707 62.1766 184.478 61.8704 184.179 61.6583L184.291 61.5821C184.529 61.4163 184.746 61.2415 184.915 60.9834L184.953 60.9224H184.939C185.123 60.6051 185.003 60.1736 184.596 60.0408Z" fill="black"/>
<path fill-rule="evenodd" clip-rule="evenodd" d="M157.254 75.323C157.236 73.4057 155.574 73.0751 153.996 73.3307C151.324 73.763 148.642 74.0671 145.934 74.122L145.468 74.1301V74.1301C145.392 74.0205 145.267 73.9373 145.096 73.9191C143.595 73.7569 142.062 73.7832 140.552 73.7386C139.235 73.7 137.882 73.5683 136.566 73.6716L136.461 73.6808C134.852 73.8366 133.154 74.6579 133.348 76.5462C133.527 78.2948 135.198 79.8428 136.533 80.8145C136.803 81.0092 137.079 81.1917 137.363 81.3581C137.452 81.4717 137.582 81.5509 137.732 81.5671C139.047 82.277 140.497 82.6971 141.999 82.837C145.182 83.1331 148.882 82.8126 151.939 81.4333C152.933 80.9848 153.86 80.4249 154.68 79.7372C155.943 78.6763 157.268 77.0676 157.254 75.323ZM144.713 79.1245C145.989 79.0861 147.263 79.2646 148.478 79.6582C149.302 79.9239 150.052 80.435 150.842 80.7902C148.182 81.8045 145.092 82.0256 142.364 81.841C141.167 81.7599 140.006 81.4839 138.925 81.0092C139.094 80.8876 139.264 80.7639 139.443 80.6562C139.982 80.3295 140.546 80.0517 141.135 79.8305C142.281 79.4005 143.49 79.1632 144.713 79.1245ZM144.285 62.3588C144.63 62.1117 144.356 61.2932 143.621 61.4197C136.939 62.5677 140.401 74.0767 148.932 67.761C149.947 66.9417 148.717 65.1372 147.623 65.8388L147.234 66.1385C145.97 67.107 143.88 68.5714 142.383 67.0001C140.969 65.02 142.971 63.1575 144.285 62.3588ZM139.762 53.6484C138.342 52.4366 136.561 53.3296 135.515 54.557L135.331 54.7765C135.121 55.0269 134.89 55.3185 134.751 55.6303C133.592 54.6437 132.021 53.9494 130.517 54.4001C129.059 54.8388 128.227 56.2308 128.478 57.7254C128.762 59.425 130.048 60.5673 131.429 61.4506L131.821 61.6995C133.482 62.758 135.035 63.8243 136.402 65.2793C136.625 65.5158 137.107 65.4844 137.253 65.1697L137.37 64.9163V64.9163L137.489 64.6631C138.459 62.5961 139.498 60.5426 140.35 58.4268C140.982 56.8588 141.187 54.863 139.762 53.6484ZM155.952 54.7461L155.736 54.4959C154.695 53.2848 152.933 52.4739 151.542 53.6484C150.062 54.8996 150.352 56.9685 151.012 58.5642C151.806 60.4887 152.733 62.3708 153.625 64.2585L153.815 64.6632C153.895 64.832 153.973 65.0007 154.051 65.1695C154.198 65.4845 154.681 65.5158 154.902 65.2792C156.227 63.8697 157.725 62.8268 159.325 61.8018L159.808 61.4945C161.212 60.6036 162.54 59.4534 162.829 57.7255C163.076 56.2342 162.249 54.8334 160.789 54.4C159.282 53.953 157.714 54.642 156.554 55.6304C156.415 55.3107 156.177 55.0095 155.952 54.7461V54.7461ZM154.048 46.0574C153.54 46.7173 154.083 47.7956 154.825 47.9661C155.744 48.1776 156.673 48.049 157.575 48.3112C158.402 48.5515 159.194 49.033 159.903 49.5129C160.711 50.06 161.455 50.6708 162.139 51.3666C162.546 51.7806 163.059 52.7613 163.686 52.7796C164.31 52.7978 163.473 50.847 163.404 50.6782C162.912 49.4767 162.221 48.3711 161.356 47.4025C159.651 45.4914 156.039 43.4748 154.048 46.0574ZM135.003 45.5293L134.577 45.6476C133.524 45.9404 132.399 46.3003 131.495 46.9318L131.424 46.982L131.315 47.062C130.18 47.9079 128.576 49.5958 129.379 51.0683C129.435 51.1697 129.552 51.1798 129.647 51.1384C130.716 50.6702 131.509 49.735 132.646 49.3439L132.856 49.2724C133.957 48.9015 135.319 48.5114 136.505 48.5469C137.338 48.8178 138.464 48.5934 138.681 47.5788L138.691 47.5291L138.709 47.424C138.834 46.7308 138.649 45.847 137.932 45.5129C136.95 45.0552 135.992 45.2589 135.003 45.5293Z" fill="black"/>
</svg>
